         CLIPS (V6.22 06/15/04)

CLIPS> (clear)
CLIPS> (deffacts      data-facts
                        (data 1.0 blue "red")
                        (data 1 blue)
                        (data 1 blue red)
                        (data 1 blue RED)
                        (data 1 blue red 6.9))
CLIPS> (deftempiate   person
                        (slot name)
                        (slot age)
                        (multislot friends))

[EXPRNPSR3] Missing function declaration for deftempiate.
CLIPS> (deffacts      data-facts 
                        (data 1.0 blue "red") 
                        (data 1 blue) 
                        (data 1 blue red) 
                        (data 1 blue RED) 
                        (data 1 blue red 6.9))
CLIPS> (deftempiate   person 
                        (slot name) 
                        (slot age) 
                        (multislot friends))

[EXPRNPSR3] Missing function declaration for deftempiate.
CLIPS> (deffacts      people
                        (person (name Joe) (age 20))
                        (person (name Bob) (age 20))
                        (person (name Joe) (age 34))
                        (person (name Sue) (age 34))
                        (person (name Sue) (age 20)))

[EXPRNPSR3] Missing function declaration for name.

ERROR:
(deffacts MAIN::people
   (person (name
CLIPS> 
