class lab3_2
{
    inputs = ();
    outputs = ();
    node_size = (80 40);
    HR_Desc = "";
    HR_OOBN_FitExpand = "1";
    HR_Zoom_ZoomFactor = "100";
    HR_Groups_GroupColors = "";
    HR_Groups_GroupNames = "";
    HR_Groups_UserGroupsNo = "0";
    HR_Color_Interface = "21";
    HR_Color_Instance = "0";
    HR_Color_Utility = "36";
    HR_Color_Decision = "17";
    HR_Color_ContinuousChance = "48";
    HR_Color_DiscreteChance = "16";
    HR_Monitor_InitSD = "2";
    HR_Monitor_InitStates = "5";
    HR_Monitor_OpenGraph = "0";
    HR_Monitor_GraphPrecision = "100";
    HR_Monitor_AutoUpdGraph = "0";
    HR_Compile_MaxMinimalSeparators = "100000";
    HR_Compile_ApproxEpsilon = "1.0E-5";
    HR_Compile_Approximate = "0";
    HR_Compile_Compress = "0";
    HR_Compile_TriangMethod = "0";
    HR_Propagate_AutoNormal = "1";
    HR_Propagate_AutoSum = "1";
    HR_Propagate_Auto = "1";
    HR_Font_Italic = "0";
    HR_Font_Weight = "400";
    HR_Font_Size = "-12";
    HR_Font_Name = "Arial";
    HR_Grid_GridShow = "0";
    HR_Grid_GridSnap = "0";
    HR_Grid_Y = "40";
    HR_Grid_X = "40";

    node o
    {
	label = "";
	position = (347 362);
	states = ("yes" "no");
	HR_Desc = "";
	HR_State_1 = "";
	HR_State_0 = "";
    }

    node x
    {
	label = "";
	position = (75 361);
	states = ("yes" "no");
	HR_Desc = "";
	HR_State_1 = "";
	HR_State_0 = "";
    }

    node tr
    {
	label = "";
	position = (194 278);
	states = ("yes" "no");
	HR_Desc = "";
	HR_State_1 = "";
	HR_State_0 = "";
    }

    node b
    {
	label = "";
	position = (337 174);
	states = ("yes" "no");
	HR_Desc = "";
	HR_State_1 = "";
	HR_State_0 = "";
    }

    node r
    {
	label = "";
	position = (239 177);
	states = ("yes" "no");
	HR_Desc = "";
	HR_State_1 = "";
	HR_State_0 = "";
    }

    node t
    {
	label = "";
	position = (86 181);
	states = ("yes" "no");
	HR_Desc = "";
	HR_State_1 = "";
	HR_State_0 = "";
    }

    node k
    {
	label = "";
	position = (245 58);
	states = ("yes" "no");
	HR_Desc = "";
	HR_State_1 = "";
	HR_State_0 = "";
    }

    node a
    {
	label = "";
	position = (84 61);
	states = ("yes" "no");
	HR_Desc = "";
	HR_State_1 = "";
	HR_State_0 = "";
    }

    potential (o | b tr)
    {
	data = ((( 0.4 0.6 )	%  b=yes  tr=yes
		 ( 0.3 0.7 ))	%  b=yes  tr=no
		(( 0.3 0.7 )	%  b=no  tr=yes
		 ( 0.1 0.9 )));	%  b=no  tr=no
    }

    potential (x | tr)
    {
	data = (( 0.9 0.1 )	%  tr=yes
		( 0.1 0.9 ));	%  tr=no
    }

    potential (tr | t r)
    {
	data = ((( 0.95 0.05 )	%  t=yes  r=yes
		 ( 0.95 0.05 ))	%  t=yes  r=no
		(( 0.95 0.05 )	%  t=no  r=yes
		 ( 0.05 0.95 )));	%  t=no  r=no
    }

    potential (b | k)
    {
	data = (( 0.6 0.4 )	%  k=yes
		( 0.1 0.9 ));	%  k=no
    }

    potential (r | k)
    {
	data = (( 0.3 0.7 )	%  k=yes
		( 0.1 0.9 ));	%  k=no
    }

    potential (t | a)
    {
	data = (( 0.2 0.8 )	%  a=yes
		( 0.1 0.9 ));	%  a=no
    }

    potential (k)
    {
	data = ( 0.05 0.95 );
    }

    potential (a)
    {
	data = ( 0.5 0.5 );
    }
} % class lab3_2
