class lab5_1
{
    inputs = ();
    outputs = ();
    node_size = (80 40);
    HR_Desc = "";
    HR_OOBN_FitExpand = "1";
    HR_Zoom_ZoomFactor = "100";
    HR_Groups_GroupColors = "";
    HR_Groups_GroupNames = "";
    HR_Groups_UserGroupsNo = "0";
    HR_Color_Interface = "21";
    HR_Color_Instance = "0";
    HR_Color_Utility = "36";
    HR_Color_Decision = "17";
    HR_Color_ContinuousChance = "48";
    HR_Color_DiscreteChance = "16";
    HR_Monitor_InitSD = "2";
    HR_Monitor_InitStates = "5";
    HR_Monitor_OpenGraph = "0";
    HR_Monitor_GraphPrecision = "100";
    HR_Monitor_AutoUpdGraph = "0";
    HR_Compile_MaxMinimalSeparators = "100000";
    HR_Compile_ApproxEpsilon = "1.0E-5";
    HR_Compile_Approximate = "0";
    HR_Compile_Compress = "0";
    HR_Compile_TriangMethod = "0";
    HR_Propagate_AutoNormal = "1";
    HR_Propagate_AutoSum = "1";
    HR_Propagate_Auto = "1";
    HR_Font_Italic = "0";
    HR_Font_Weight = "400";
    HR_Font_Size = "-12";
    HR_Font_Name = "Arial";
    HR_Grid_GridShow = "0";
    HR_Grid_GridSnap = "0";
    HR_Grid_Y = "40";
    HR_Grid_X = "40";

    node C2
    {
	label = "Zagruzka Oborudovaniya";
	position = (324 77);
	states = ("Pilorama1" "Pilorama2" "Pilorama3");
	HR_State_2 = "";
	HR_NodeSize = "(196, 51)";
	HR_Desc = "";
	HR_State_1 = "";
	HR_State_0 = "";
    }

    continuous node C4
    {
	label = "Proizvodstvennye Zatraty";
	position = (322 245);
	HR_NodeSize = "(179, 46)";
	HR_Desc = "";
    }

    continuous node C3
    {
	label = "Norma Amortizacii";
	position = (516 112);
	HR_NodeSize = "(178, 48)";
	HR_Desc = "";
    }

    continuous node C1
    {
	label = "Stavka Arendnoi Platy";
	position = (132 105);
	HR_NodeSize = "(161, 52)";
	HR_Desc = "";
    }

    potential (C2)
    {
	data = ( 0.333 0.333 0.333 );
    }

    potential (C4 | C2 C1 C3)
    {
	data = ( normal ( 3000 + 0.6 * C1 + 50000 * C3, 22500 )	%  C2=Pilorama1
		 normal ( 3200 + 0.5 * C1 + 40000 * C3, 25600 )	%  C2=Pilorama2
		 normal ( 3500 + 0.4 * C1 + 30000 * C3, 30625 ) );	%  C2=Pilorama3
    }

    potential (C3)
    {
	data = normal ( 0.075, 0.000625 );
    }

    potential (C1)
    {
	data = normal ( 2500, 62500 );
    }
} % class lab5_1
